-----------Payroll WEB Exception Log Written  Details on  09-12-2020 12:06:14 AM-----------------
URL: http://localhost:49240/Company/List
Error Message: One or more errors occurred.
StackTrace:    at System.Threading.Tasks.Task.ThrowIfExceptional(Boolean includeTaskCanceledExceptions)
   at System.Threading.Tasks.Task`1.GetResultCore(Boolean waitCompletionNotification)
   at System.Threading.Tasks.Task`1.get_Result()
   at Payroll.Controllers.CompanyController.List() in D:\Sagar\WIP\Payroll\Payroll\Controllers\CompanyController.cs:line 45
Source: mscorlib
TargetSite: Void ThrowIfExceptional(Boolean)
----------------------------------------------------------------------------------------------------------

-----------Payroll WEB Exception Log Written  Details on  09-12-2020 12:06:30 AM-----------------
URL: http://localhost:49240/Company/List
Error Message: One or more errors occurred.
StackTrace:    at System.Threading.Tasks.Task.ThrowIfExceptional(Boolean includeTaskCanceledExceptions)
   at System.Threading.Tasks.Task`1.GetResultCore(Boolean waitCompletionNotification)
   at System.Threading.Tasks.Task`1.get_Result()
   at Payroll.Controllers.CompanyController.List() in D:\Sagar\WIP\Payroll\Payroll\Controllers\CompanyController.cs:line 45
Source: mscorlib
TargetSite: Void ThrowIfExceptional(Boolean)
----------------------------------------------------------------------------------------------------------

-----------Payroll WEB Exception Log Written  Details on  09-12-2020 12:06:42 AM-----------------
URL: http://localhost:49240/Company/List
Error Message: One or more errors occurred.
StackTrace:    at System.Threading.Tasks.Task.ThrowIfExceptional(Boolean includeTaskCanceledExceptions)
   at System.Threading.Tasks.Task`1.GetResultCore(Boolean waitCompletionNotification)
   at System.Threading.Tasks.Task`1.get_Result()
   at Payroll.Controllers.CompanyController.List() in D:\Sagar\WIP\Payroll\Payroll\Controllers\CompanyController.cs:line 45
Source: mscorlib
TargetSite: Void ThrowIfExceptional(Boolean)
----------------------------------------------------------------------------------------------------------

-----------Payroll WEB Exception Log Written  Details on  09-12-2020 12:40:06 PM-----------------
URL: http://localhost:49240/FormulaSetup/List
Error Message: Object reference not set to an instance of an object.
StackTrace:    at Payroll.Controllers.FormulaSetupController.List() in D:\Sagar\WIP\Payroll\Payroll\Controllers\FormulaSetupController.cs:line 92
Source: Payroll
TargetSite: System.Web.Mvc.JsonResult List()
----------------------------------------------------------------------------------------------------------

-----------Payroll WEB Exception Log Written  Details on  09-12-2020 12:40:27 PM-----------------
URL: http://localhost:49240/FormulaSetup/List
Error Message: Object reference not set to an instance of an object.
StackTrace:    at Payroll.Controllers.FormulaSetupController.List() in D:\Sagar\WIP\Payroll\Payroll\Controllers\FormulaSetupController.cs:line 92
Source: Payroll
TargetSite: System.Web.Mvc.JsonResult List()
----------------------------------------------------------------------------------------------------------

-----------Payroll WEB Exception Log Written  Details on  09-12-2020 02:07:39 PM-----------------
URL: http://localhost:49240/FormulaSetup/List
Error Message: Object reference not set to an instance of an object.
StackTrace:    at Payroll.Controllers.FormulaSetupController.List() in D:\Sagar\WIP\Payroll\Payroll\Controllers\FormulaSetupController.cs:line 92
Source: Payroll
TargetSite: System.Web.Mvc.JsonResult List()
----------------------------------------------------------------------------------------------------------

-----------Payroll WEB Exception Log Written  Details on  09-12-2020 03:43:39 PM-----------------
URL: http://localhost:49240/FormulaSetup/List
Error Message: Object reference not set to an instance of an object.
StackTrace:    at Payroll.Controllers.FormulaSetupController.List() in D:\Sagar\WIP\Payroll\Payroll\Controllers\FormulaSetupController.cs:line 92
Source: Payroll
TargetSite: System.Web.Mvc.JsonResult List()
----------------------------------------------------------------------------------------------------------

-----------Payroll WEB Exception Log Written  Details on  09-12-2020 04:38:52 PM-----------------
URL: http://localhost:49240/FormulaSetup/List
Error Message: Object reference not set to an instance of an object.
StackTrace:    at Payroll.Controllers.FormulaSetupController.List() in D:\Sagar\WIP\Payroll\Payroll\Controllers\FormulaSetupController.cs:line 92
Source: Payroll
TargetSite: System.Web.Mvc.JsonResult List()
----------------------------------------------------------------------------------------------------------

-----------Payroll WEB Exception Log Written  Details on  09-12-2020 04:39:01 PM-----------------
URL: http://localhost:49240/FormulaSetup/List
Error Message: Object reference not set to an instance of an object.
StackTrace:    at Payroll.Controllers.FormulaSetupController.List() in D:\Sagar\WIP\Payroll\Payroll\Controllers\FormulaSetupController.cs:line 92
Source: Payroll
TargetSite: System.Web.Mvc.JsonResult List()
----------------------------------------------------------------------------------------------------------

